info face="KacstOne" size=28 bold=1 italic=0 charset="unicode" stretchH=100 smooth=1 aa=2 padding=0,0,0,0 spacing=2,2 
common lineHeight=28 base=19 scaleW=1024 scaleH=512 pages=1
char id=32   x=789   y=13    width=2     height=1     xoffset=0     yoffset=27    xadvance=4     page=0  
char id=33   x=786   y=0     width=3     height=11    xoffset=1     yoffset=8     xadvance=5     page=0  
char id=34   x=704   y=13    width=6     height=5     xoffset=1     yoffset=8     xadvance=8     page=0  
char id=35   x=580   y=0     width=8     height=11    xoffset=0     yoffset=8     xadvance=7     page=0  
char id=36   x=256   y=0     width=7     height=13    xoffset=0     yoffset=7     xadvance=7     page=0  
char id=37   x=423   y=0     width=12    height=11    xoffset=1     yoffset=8     xadvance=14    page=0  
char id=38   x=451   y=0     width=11    height=11    xoffset=0     yoffset=8     xadvance=12    page=0  
char id=39   x=732   y=13    width=3     height=5     xoffset=0     yoffset=8     xadvance=4     page=0  
char id=40   x=283   y=0     width=5     height=13    xoffset=0     yoffset=8     xadvance=5     page=0  
char id=41   x=290   y=0     width=5     height=13    xoffset=0     yoffset=8     xadvance=5     page=0  
char id=42   x=504   y=13    width=7     height=7     xoffset=0     yoffset=8     xadvance=7     page=0  
char id=43   x=445   y=13    width=9     height=8     xoffset=0     yoffset=11    xadvance=9     page=0  
char id=44   x=726   y=13    width=4     height=5     xoffset=0     yoffset=16    xadvance=3     page=0  
char id=45   x=783   y=13    width=4     height=2     xoffset=0     yoffset=14    xadvance=5     page=0  
char id=46   x=767   y=13    width=4     height=3     xoffset=0     yoffset=16    xadvance=3     page=0  
char id=47   x=779   y=0     width=5     height=11    xoffset=0     yoffset=8     xadvance=4     page=0  
char id=48   x=530   y=0     width=8     height=11    xoffset=0     yoffset=8     xadvance=7     page=0  
char id=49   x=708   y=0     width=7     height=11    xoffset=0     yoffset=8     xadvance=7     page=0  
char id=50   x=717   y=0     width=7     height=11    xoffset=0     yoffset=8     xadvance=7     page=0  
char id=51   x=726   y=0     width=7     height=11    xoffset=0     yoffset=8     xadvance=7     page=0  
char id=52   x=520   y=0     width=8     height=11    xoffset=0     yoffset=8     xadvance=7     page=0  
char id=53   x=735   y=0     width=7     height=11    xoffset=0     yoffset=8     xadvance=7     page=0  
char id=54   x=540   y=0     width=8     height=11    xoffset=0     yoffset=8     xadvance=7     page=0  
char id=55   x=510   y=0     width=8     height=11    xoffset=0     yoffset=8     xadvance=7     page=0  
char id=56   x=744   y=0     width=7     height=11    xoffset=0     yoffset=8     xadvance=7     page=0  
char id=57   x=753   y=0     width=7     height=11    xoffset=0     yoffset=8     xadvance=7     page=0  
char id=58   x=465   y=13    width=3     height=8     xoffset=1     yoffset=11    xadvance=5     page=0  
char id=59   x=172   y=15    width=3     height=10    xoffset=1     yoffset=11    xadvance=5     page=0  
char id=60   x=306   y=15    width=9     height=9     xoffset=0     yoffset=10    xadvance=9     page=0  
char id=61   x=693   y=13    width=9     height=5     xoffset=0     yoffset=12    xadvance=9     page=0  
char id=62   x=295   y=15    width=9     height=9     xoffset=0     yoffset=10    xadvance=9     page=0  
char id=63   x=762   y=0     width=7     height=11    xoffset=0     yoffset=8     xadvance=7     page=0  
char id=64   x=437   y=0     width=12    height=11    xoffset=1     yoffset=8     xadvance=13    page=0  
char id=91   x=317   y=0     width=4     height=13    xoffset=0     yoffset=8     xadvance=5     page=0  
char id=92   x=771   y=0     width=6     height=11    xoffset=0     yoffset=8     xadvance=4     page=0  
char id=93   x=311   y=0     width=4     height=13    xoffset=0     yoffset=8     xadvance=5     page=0  
char id=94   x=661   y=13    width=7     height=6     xoffset=1     yoffset=8     xadvance=8     page=0  
char id=95   x=773   y=13    width=8     height=2     xoffset=0     yoffset=19    xadvance=7     page=0  
char id=123  x=304   y=0     width=5     height=13    xoffset=0     yoffset=8     xadvance=5     page=0  
char id=124  x=791   y=0     width=2     height=11    xoffset=0     yoffset=8     xadvance=3     page=0  
char id=125  x=297   y=0     width=5     height=13    xoffset=1     yoffset=8     xadvance=5     page=0  
char id=126  x=757   y=13    width=8     height=3     xoffset=0     yoffset=13    xadvance=7     page=0  
char id=65 x=720   y=13    width=4     height=5     xoffset=0     yoffset=14    xadvance=4     page=0  
char id=66 x=600   y=0     width=7     height=11    xoffset=0     yoffset=8     xadvance=7     page=0  
char id=67 x=679   y=13    width=5     height=6     xoffset=0     yoffset=1     xadvance=3     page=0  
char id=68 x=670   y=13    width=7     height=6     xoffset=-1    yoffset=3     xadvance=3     page=0  
char id=69 x=545   y=13    width=5     height=7     xoffset=0     yoffset=21    xadvance=3     page=0  
char id=70 x=744   y=13    width=5     height=4     xoffset=0     yoffset=3     xadvance=3     page=0  
char id=71 x=686   y=13    width=5     height=6     xoffset=0     yoffset=2     xadvance=3     page=0  
char id=72 x=737   y=13    width=5     height=4     xoffset=0     yoffset=23    xadvance=3     page=0  
char id=73 x=712   y=13    width=6     height=5     xoffset=0     yoffset=5     xadvance=3     page=0  
char id=74 x=751   y=13    width=4     height=4     xoffset=0     yoffset=4     xadvance=3     page=0  
char id=75 x=537   y=13    width=6     height=7     xoffset=0     yoffset=13    xadvance=6     page=0  
char id=76 x=375   y=0     width=5     height=12    xoffset=0     yoffset=7     xadvance=3     page=0  
char id=77 x=368   y=0     width=5     height=12    xoffset=0     yoffset=7     xadvance=3     page=0  
char id=78 x=389   y=0     width=4     height=12    xoffset=0     yoffset=7     xadvance=4     page=0  
char id=79 x=382   y=0     width=5     height=12    xoffset=0     yoffset=7     xadvance=4     page=0  
char id=80 x=41    y=0     width=8     height=15    xoffset=-1    yoffset=8     xadvance=7     page=0  
char id=81 x=31    y=0     width=8     height=15    xoffset=-1    yoffset=8     xadvance=6     page=0  
char id=82 x=157   y=0     width=4     height=14    xoffset=0     yoffset=9     xadvance=3     page=0  
char id=83 x=61    y=0     width=5     height=15    xoffset=0     yoffset=9     xadvance=4     page=0  
char id=84 x=201   y=0     width=10    height=13    xoffset=0     yoffset=9     xadvance=10    page=0  
char id=85 x=347   y=0     width=9     height=12    xoffset=0     yoffset=11    xadvance=9     page=0  
char id=86 x=618   y=0     width=7     height=11    xoffset=0     yoffset=8     xadvance=6     page=0  
char id=87 x=627   y=0     width=7     height=11    xoffset=-1    yoffset=8     xadvance=5     page=0  
char id=88 x=167   y=15    width=3     height=10    xoffset=0     yoffset=9     xadvance=3     page=0  
char id=89 x=161   y=16    width=4     height=10    xoffset=0     yoffset=9     xadvance=3     page=0  
char id=90 x=247   y=15    width=10    height=9     xoffset=0     yoffset=13    xadvance=11    page=0  
char id=97 x=259   y=15    width=10    height=9     xoffset=0     yoffset=13    xadvance=10    page=0  
char id=98 x=337   y=14    width=7     height=9     xoffset=-1    yoffset=13    xadvance=6     page=0  
char id=99 x=355   y=14    width=7     height=9     xoffset=-1    yoffset=13    xadvance=5     page=0  
char id=100 x=121   y=16    width=6     height=10    xoffset=0     yoffset=9     xadvance=7     page=0  
char id=101 x=609   y=0     width=7     height=11    xoffset=0     yoffset=8     xadvance=6     page=0  
char id=102 x=421   y=13    width=10    height=8     xoffset=0     yoffset=11    xadvance=11    page=0  
char id=103 x=433   y=13    width=10    height=8     xoffset=0     yoffset=11    xadvance=10    page=0  
char id=104 x=382   y=14    width=7     height=9     xoffset=-1    yoffset=10    xadvance=6     page=0  
char id=105 x=373   y=14    width=7     height=9     xoffset=-1    yoffset=10    xadvance=5     page=0  
char id=106 x=283   y=15    width=10    height=9     xoffset=0     yoffset=10    xadvance=11    page=0  
char id=107 x=271   y=15    width=10    height=9     xoffset=0     yoffset=10    xadvance=10    page=0  
char id=108 x=636   y=0     width=7     height=11    xoffset=-1    yoffset=8     xadvance=6     page=0  
char id=109 x=645   y=0     width=7     height=11    xoffset=-1    yoffset=8     xadvance=5     page=0  
char id=110 x=499   y=0     width=9     height=11    xoffset=0     yoffset=13    xadvance=9     page=0  
char id=111 x=476   y=0     width=10    height=11    xoffset=0     yoffset=13    xadvance=10    page=0  
char id=112 x=923   y=0     width=11    height=10    xoffset=-1    yoffset=13    xadvance=10    page=0  
char id=113 x=936   y=0     width=11    height=10    xoffset=-1    yoffset=13    xadvance=9     page=0  
char id=114 x=488   y=0     width=9     height=11    xoffset=0     yoffset=13    xadvance=9     page=0  
char id=115 x=464   y=0     width=10    height=11    xoffset=0     yoffset=13    xadvance=10    page=0  
char id=116 x=615   y=13    width=11    height=6     xoffset=-1    yoffset=13    xadvance=10    page=0  
char id=117 x=628   y=13    width=11    height=6     xoffset=-1    yoffset=13    xadvance=9     page=0  
char id=118 x=136   y=0     width=9     height=14    xoffset=0     yoffset=10    xadvance=9     page=0  
char id=119 x=124   y=0     width=10    height=14    xoffset=0     yoffset=10    xadvance=10    page=0  
char id=120 x=871   y=0     width=11    height=10    xoffset=-1    yoffset=9     xadvance=10    page=0  
char id=121 x=858   y=0     width=11    height=10    xoffset=-1    yoffset=9     xadvance=9     page=0  
char id=122 x=521   y=13    width=6     height=7     xoffset=0     yoffset=12    xadvance=6     page=0  
char id=172 x=529   y=13    width=6     height=7     xoffset=0     yoffset=12    xadvance=5     page=0  
char id=174 x=145   y=16    width=6     height=10    xoffset=0     yoffset=9     xadvance=6     page=0  
char id=175 x=137   y=16    width=6     height=10    xoffset=0     yoffset=9     xadvance=5     page=0  
char id=176 x=346   y=14    width=7     height=9     xoffset=0     yoffset=14    xadvance=6     page=0  
char id=177 x=364   y=14    width=7     height=9     xoffset=0     yoffset=14    xadvance=5     page=0  
char id=178 x=274   y=0     width=7     height=13    xoffset=0     yoffset=10    xadvance=6     page=0  
char id=179 x=265   y=0     width=7     height=13    xoffset=0     yoffset=10    xadvance=5     page=0  
char id=180 x=231   y=15    width=14    height=9     xoffset=0     yoffset=13    xadvance=15    page=0  
char id=181 x=215   y=15    width=14    height=9     xoffset=0     yoffset=13    xadvance=14    page=0  
char id=182 x=587   y=13    width=12    height=6     xoffset=-1    yoffset=13    xadvance=11    page=0  
char id=183 x=601   y=13    width=12    height=6     xoffset=-1    yoffset=13    xadvance=10    page=0  
char id=184 x=84    y=0     width=14    height=14    xoffset=0     yoffset=8     xadvance=15    page=0  
char id=185 x=68    y=0     width=14    height=14    xoffset=0     yoffset=8     xadvance=14    page=0  
char id=186 x=844   y=0     width=12    height=10    xoffset=-1    yoffset=9     xadvance=11    page=0  
char id=187 x=830   y=0     width=12    height=10    xoffset=-1    yoffset=9     xadvance=10    page=0  
char id=188 x=196   y=15    width=17    height=9     xoffset=0     yoffset=13    xadvance=17    page=0  
char id=189 x=177   y=15    width=17    height=9     xoffset=0     yoffset=13    xadvance=16    page=0  
char id=190 x=552   y=13    width=16    height=6     xoffset=-1    yoffset=13    xadvance=14    page=0  
char id=191 x=570   y=13    width=15    height=6     xoffset=-1    yoffset=13    xadvance=13    page=0  
char id=192 x=182   y=0     width=17    height=13    xoffset=0     yoffset=9     xadvance=17    page=0  
char id=193 x=163   y=0     width=17    height=13    xoffset=0     yoffset=9     xadvance=16    page=0  
char id=194 x=795   y=0     width=16    height=10    xoffset=-1    yoffset=9     xadvance=14    page=0  
char id=195 x=813   y=0     width=15    height=10    xoffset=-1    yoffset=9     xadvance=13    page=0  
char id=196 x=884   y=0     width=11    height=10    xoffset=0     yoffset=9     xadvance=11    page=0  
char id=197 x=975   y=0     width=11    height=10    xoffset=0     yoffset=9     xadvance=11    page=0  
char id=198 x=988   y=0     width=11    height=10    xoffset=-1    yoffset=9     xadvance=10    page=0  
char id=199 x=0     y=18    width=11    height=10    xoffset=-1    yoffset=9     xadvance=9     page=0  
char id=200 x=1001  y=0     width=11    height=10    xoffset=0     yoffset=9     xadvance=11    page=0  
char id=201 x=13    y=18    width=11    height=10    xoffset=0     yoffset=9     xadvance=11    page=0  
char id=202 x=897   y=0     width=11    height=10    xoffset=-1    yoffset=9     xadvance=10    page=0  
char id=203 x=910   y=0     width=11    height=10    xoffset=-1    yoffset=9     xadvance=9     page=0  
char id=204 x=358   y=0     width=8     height=12    xoffset=0     yoffset=12    xadvance=9     page=0  
char id=205 x=570   y=0     width=8     height=11    xoffset=0     yoffset=13    xadvance=8     page=0  
char id=206 x=470   y=13    width=10    height=7     xoffset=-1    yoffset=12    xadvance=8     page=0  
char id=207 x=493   y=13    width=9     height=7     xoffset=-1    yoffset=12    xadvance=7     page=0  
char id=208 x=21    y=0     width=8     height=15    xoffset=0     yoffset=9     xadvance=9     page=0  
char id=209 x=51    y=0     width=8     height=15    xoffset=0     yoffset=9     xadvance=8     page=0  
char id=210 x=26    y=17    width=10    height=10    xoffset=-1    yoffset=9     xadvance=8     page=0  
char id=211 x=61    y=17    width=9     height=10    xoffset=-1    yoffset=9     xadvance=7     page=0  
char id=212 x=395   y=0     width=12    height=11    xoffset=0     yoffset=8     xadvance=12    page=0  
char id=213 x=409   y=0     width=12    height=11    xoffset=0     yoffset=8     xadvance=11    page=0  
char id=214 x=699   y=0     width=7     height=11    xoffset=-1    yoffset=8     xadvance=6     page=0  
char id=215 x=690   y=0     width=7     height=11    xoffset=-1    yoffset=8     xadvance=5     page=0  
char id=216 x=100   y=0     width=10    height=14    xoffset=0     yoffset=9     xadvance=10    page=0  
char id=217 x=112   y=0     width=10    height=14    xoffset=0     yoffset=9     xadvance=9     page=0  
char id=218 x=654   y=0     width=7     height=11    xoffset=-1    yoffset=8     xadvance=6     page=0  
char id=219 x=663   y=0     width=7     height=11    xoffset=-1    yoffset=8     xadvance=5     page=0  
char id=220 x=949   y=0     width=11    height=10    xoffset=0     yoffset=9     xadvance=11    page=0  
char id=221 x=962   y=0     width=11    height=10    xoffset=0     yoffset=9     xadvance=10    page=0  
char id=222 x=317   y=15    width=8     height=9     xoffset=-1    yoffset=10    xadvance=7     page=0  
char id=223 x=327   y=14    width=8     height=9     xoffset=-1    yoffset=10    xadvance=6     page=0  
char id=224 x=246   y=0     width=8     height=13    xoffset=0     yoffset=9     xadvance=8     page=0  
char id=225 x=236   y=0     width=8     height=13    xoffset=0     yoffset=9     xadvance=7     page=0  
char id=226 x=129   y=16    width=6     height=10    xoffset=-1    yoffset=9     xadvance=5     page=0  
char id=227 x=153   y=16    width=6     height=10    xoffset=-1    yoffset=9     xadvance=4     page=0  
char id=228 x=672   y=0     width=7     height=11    xoffset=0     yoffset=13    xadvance=7     page=0  
char id=229 x=681   y=0     width=7     height=11    xoffset=0     yoffset=13    xadvance=6     page=0  
char id=230 x=641   y=13    width=8     height=6     xoffset=-1    yoffset=13    xadvance=7     page=0  
char id=231 x=651   y=13    width=8     height=6     xoffset=-1    yoffset=13    xadvance=6     page=0  
char id=232 x=560   y=0     width=8     height=11    xoffset=0     yoffset=11    xadvance=8     page=0  
char id=233 x=550   y=0     width=8     height=11    xoffset=0     yoffset=11    xadvance=8     page=0  
char id=234 x=112   y=16    width=7     height=10    xoffset=-1    yoffset=9     xadvance=6     page=0  
char id=235 x=103   y=16    width=7     height=10    xoffset=-1    yoffset=9     xadvance=5     page=0  
char id=236 x=513   y=13    width=6     height=7     xoffset=0     yoffset=12    xadvance=7     page=0  
char id=237 x=456   y=13    width=7     height=8     xoffset=0     yoffset=11    xadvance=6     page=0  
char id=238 x=409   y=13    width=10    height=8     xoffset=-1    yoffset=11    xadvance=8     page=0  
char id=239 x=1014  y=0     width=8     height=10    xoffset=-1    yoffset=12    xadvance=6     page=0  
char id=240 x=83    y=16    width=8     height=10    xoffset=-1    yoffset=13    xadvance=7     page=0  
char id=241 x=93    y=16    width=8     height=10    xoffset=-1    yoffset=13    xadvance=6     page=0  
char id=242 x=38    y=17    width=10    height=10    xoffset=0     yoffset=12    xadvance=10    page=0  
char id=243 x=482   y=13    width=9     height=7     xoffset=0     yoffset=16    xadvance=9     page=0  
char id=244 x=335   y=0     width=10    height=12    xoffset=0     yoffset=12    xadvance=10    page=0  
char id=245 x=72    y=16    width=9     height=10    xoffset=0     yoffset=16    xadvance=9     page=0  
char id=246 x=391   y=14    width=7     height=9     xoffset=-1    yoffset=13    xadvance=6     page=0  
char id=247 x=400   y=13    width=7     height=9     xoffset=-1    yoffset=13    xadvance=5     page=0  
char id=248 x=225   y=0     width=9     height=13    xoffset=0     yoffset=7     xadvance=9     page=0  
char id=249 x=323   y=0     width=10    height=12    xoffset=0     yoffset=7     xadvance=10    page=0  
char id=250 x=147   y=0     width=8     height=14    xoffset=0     yoffset=6     xadvance=8     page=0  
char id=251 x=213   y=0     width=10    height=13    xoffset=0     yoffset=6     xadvance=9     page=0  
char id=252 x=11    y=0     width=8     height=16    xoffset=0     yoffset=9     xadvance=8     page=0  
char id=253 x=0     y=0     width=9     height=16    xoffset=0     yoffset=9     xadvance=9     page=0  
char id=254 x=590   y=0     width=8     height=11    xoffset=0     yoffset=9     xadvance=8     page=0  
char id=255 x=50    y=17    width=9     height=10    xoffset=0     yoffset=9     xadvance=9     page=0  
