info face="Segoe UI" size=29 bold=0 italic=0 charset="unicode" stretchH=100 smooth=1 aa=2 padding=3,3,3,3 spacing=1,1 
common lineHeight=29 base=23 scaleW=1024 scaleH=512 pages=1
char id=32   x=253   y=68    width=8     height=7     xoffset=-3    yoffset=25    xadvance=6     page=0  
char id=33   x=714   y=24    width=9     height=21    xoffset=-2    yoffset=5     xadvance=6     page=0  
char id=34   x=59    y=72    width=12    height=11    xoffset=-2    yoffset=5     xadvance=8     page=0  
char id=35   x=829   y=23    width=19    height=20    xoffset=-3    yoffset=5     xadvance=12    page=0  
char id=36   x=343   y=0     width=15    height=25    xoffset=-2    yoffset=3     xadvance=11    page=0  
char id=37   x=275   y=27    width=22    height=21    xoffset=-3    yoffset=5     xadvance=17    page=0  
char id=38   x=252   y=27    width=22    height=21    xoffset=-2    yoffset=5     xadvance=17    page=0  
char id=39   x=95    y=71    width=8     height=11    xoffset=-2    yoffset=5     xadvance=5     page=0  
char id=40   x=389   y=0     width=12    height=25    xoffset=-2    yoffset=5     xadvance=6     page=0  
char id=41   x=402   y=0     width=12    height=25    xoffset=-3    yoffset=5     xadvance=6     page=0  
char id=42   x=0     y=72    width=14    height=13    xoffset=-3    yoffset=5     xadvance=9     page=0  
char id=43   x=683   y=46    width=17    height=16    xoffset=-1    yoffset=9     xadvance=14    page=0  
char id=44   x=33    y=72    width=10    height=12    xoffset=-3    yoffset=17    xadvance=4     page=0  
char id=45   x=213   y=69    width=13    height=8     xoffset=-2    yoffset=13    xadvance=8     page=0  
char id=46   x=186   y=69    width=9     height=9     xoffset=-2    yoffset=17    xadvance=4     page=0  
char id=47   x=616   y=0     width=15    height=24    xoffset=-3    yoffset=5     xadvance=8     page=0  
char id=48   x=434   y=26    width=17    height=21    xoffset=-3    yoffset=5     xadvance=11    page=0  
char id=49   x=701   y=24    width=12    height=21    xoffset=-1    yoffset=5     xadvance=11    page=0  
char id=50   x=576   y=25    width=16    height=21    xoffset=-2    yoffset=5     xadvance=11    page=0  
char id=51   x=609   y=25    width=15    height=21    xoffset=-2    yoffset=5     xadvance=11    page=0  
char id=52   x=452   y=26    width=17    height=21    xoffset=-3    yoffset=5     xadvance=11    page=0  
char id=53   x=625   y=25    width=15    height=21    xoffset=-2    yoffset=5     xadvance=11    page=0  
char id=54   x=542   y=25    width=16    height=21    xoffset=-2    yoffset=5     xadvance=11    page=0  
char id=55   x=470   y=25    width=17    height=21    xoffset=-3    yoffset=5     xadvance=11    page=0  
char id=56   x=488   y=25    width=17    height=21    xoffset=-3    yoffset=5     xadvance=11    page=0  
char id=57   x=506   y=25    width=17    height=21    xoffset=-3    yoffset=5     xadvance=11    page=0  
char id=58   x=1013  y=23    width=9     height=17    xoffset=-2    yoffset=9     xadvance=4     page=0  
char id=59   x=949   y=23    width=10    height=20    xoffset=-3    yoffset=9     xadvance=4     page=0  
char id=60   x=628   y=47    width=16    height=17    xoffset=-1    yoffset=8     xadvance=14    page=0  
char id=61   x=15    y=72    width=17    height=12    xoffset=-1    yoffset=11    xadvance=14    page=0  
char id=62   x=611   y=47    width=16    height=17    xoffset=-1    yoffset=8     xadvance=14    page=0  
char id=63   x=641   y=25    width=14    height=21    xoffset=-2    yoffset=5     xadvance=9     page=0  
char id=64   x=648   y=0     width=23    height=23    xoffset=-2    yoffset=5     xadvance=20    page=0  
char id=91   x=453   y=0     width=11    height=25    xoffset=-1    yoffset=5     xadvance=6     page=0  
char id=92   x=632   y=0     width=15    height=24    xoffset=-3    yoffset=5     xadvance=8     page=0  
char id=93   x=441   y=0     width=11    height=25    xoffset=-3    yoffset=5     xadvance=6     page=0  
char id=94   x=852   y=44    width=17    height=15    xoffset=-1    yoffset=5     xadvance=14    page=0  
char id=95   x=196   y=69    width=16    height=8     xoffset=-3    yoffset=21    xadvance=8     page=0  
char id=96   x=147   y=70    width=11    height=10    xoffset=-3    yoffset=4     xadvance=5     page=0  
char id=123  x=428   y=0     width=12    height=25    xoffset=-3    yoffset=5     xadvance=6     page=0  
char id=124  x=104   y=0     width=8     height=27    xoffset=-2    yoffset=4     xadvance=5     page=0  
char id=125  x=415   y=0     width=12    height=25    xoffset=-3    yoffset=5     xadvance=6     page=0  
char id=126  x=104   y=71    width=17    height=10    xoffset=-1    yoffset=12    xadvance=14    page=0  
char id=65 x=85    y=71    width=9     height=11    xoffset=-2    yoffset=15    xadvance=5     page=0  
char id=66 x=686   y=24    width=14    height=21    xoffset=-2    yoffset=5     xadvance=10    page=0  
char id=67 x=173   y=69    width=12    height=9     xoffset=-3    yoffset=7     xadvance=6     page=0  
char id=68 x=44    y=72    width=14    height=11    xoffset=-3    yoffset=6     xadvance=7     page=0  
char id=69 x=122   y=70    width=12    height=10    xoffset=-3    yoffset=21    xadvance=5     page=0  
char id=70 x=240   y=68    width=12    height=7     xoffset=-3    yoffset=9     xadvance=5     page=0  
char id=71 x=72    y=71    width=12    height=11    xoffset=-3    yoffset=6     xadvance=6     page=0  
char id=72 x=227   y=69    width=12    height=8     xoffset=-3    yoffset=21    xadvance=6     page=0  
char id=73 x=159   y=69    width=13    height=9     xoffset=-3    yoffset=7     xadvance=6     page=0  
char id=74 x=135   y=70    width=11    height=10    xoffset=-3    yoffset=6     xadvance=6     page=0  
char id=75 x=1002  y=43    width=14    height=13    xoffset=-3    yoffset=13    xadvance=9     page=0  
char id=76 x=374   y=0     width=14    height=25    xoffset=-4    yoffset=1     xadvance=5     page=0  
char id=77 x=359   y=0     width=14    height=25    xoffset=-4    yoffset=1     xadvance=5     page=0  
char id=78 x=92    y=0     width=11    height=27    xoffset=-3    yoffset=-1    xadvance=5     page=0  
char id=79 x=80    y=0     width=11    height=27    xoffset=-3    yoffset=-1    xadvance=5     page=0  
char id=80 x=269   y=0     width=16    height=26    xoffset=-3    yoffset=6     xadvance=10    page=0  
char id=81 x=213   y=0     width=18    height=26    xoffset=-3    yoffset=6     xadvance=10    page=0  
char id=82 x=50    y=0     width=11    height=28    xoffset=-3    yoffset=4     xadvance=5     page=0  
char id=83 x=38    y=0     width=11    height=28    xoffset=-3    yoffset=4     xadvance=5     page=0  
char id=84 x=319   y=26    width=20    height=21    xoffset=-2    yoffset=7     xadvance=16    page=0  
char id=85 x=781   y=23    width=23    height=20    xoffset=-2    yoffset=9     xadvance=17    page=0  
char id=86 x=935   y=23    width=13    height=20    xoffset=-4    yoffset=6     xadvance=7     page=0  
char id=87 x=919   y=23    width=15    height=20    xoffset=-4    yoffset=6     xadvance=7     page=0  
char id=88 x=95    y=28    width=9     height=22    xoffset=-2    yoffset=4     xadvance=5     page=0  
char id=89 x=84    y=28    width=10    height=22    xoffset=-2    yoffset=4     xadvance=5     page=0  
char id=90 x=339   y=48    width=23    height=18    xoffset=-2    yoffset=12    xadvance=19    page=0  
char id=97 x=289   y=49    width=25    height=18    xoffset=-2    yoffset=12    xadvance=19    page=0  
char id=98 x=555   y=47    width=13    height=18    xoffset=-4    yoffset=12    xadvance=7     page=0  
char id=99 x=495   y=47    width=15    height=18    xoffset=-4    yoffset=12    xadvance=7     page=0  
char id=100 x=656   y=24    width=14    height=21    xoffset=-2    yoffset=5     xadvance=10    page=0  
char id=101 x=559   y=25    width=16    height=21    xoffset=-2    yoffset=5     xadvance=10    page=0  
char id=102 x=25    y=52    width=23    height=19    xoffset=-2    yoffset=7     xadvance=19    page=0  
char id=103 x=987   y=23    width=25    height=19    xoffset=-2    yoffset=7     xadvance=19    page=0  
char id=104 x=216   y=49    width=14    height=19    xoffset=-4    yoffset=7     xadvance=7     page=0  
char id=105 x=200   y=49    width=15    height=19    xoffset=-4    yoffset=7     xadvance=7     page=0  
char id=106 x=228   y=27    width=23    height=21    xoffset=-2    yoffset=5     xadvance=19    page=0  
char id=107 x=202   y=27    width=25    height=21    xoffset=-2    yoffset=5     xadvance=19    page=0  
char id=108 x=671   y=24    width=14    height=21    xoffset=-4    yoffset=5     xadvance=7     page=0  
char id=109 x=593   y=25    width=15    height=21    xoffset=-4    yoffset=5     xadvance=7     page=0  
char id=110 x=524   y=25    width=17    height=21    xoffset=-2    yoffset=11    xadvance=12    page=0  
char id=111 x=397   y=26    width=18    height=21    xoffset=-2    yoffset=11    xadvance=12    page=0  
char id=112 x=405   y=48    width=20    height=18    xoffset=-4    yoffset=12    xadvance=12    page=0  
char id=113 x=363   y=48    width=20    height=18    xoffset=-4    yoffset=12    xadvance=12    page=0  
char id=114 x=416   y=26    width=17    height=21    xoffset=-2    yoffset=11    xadvance=12    page=0  
char id=115 x=340   y=26    width=18    height=21    xoffset=-2    yoffset=11    xadvance=12    page=0  
char id=116 x=941   y=44    width=20    height=14    xoffset=-4    yoffset=12    xadvance=12    page=0  
char id=117 x=920   y=44    width=20    height=14    xoffset=-4    yoffset=12    xadvance=12    page=0  
char id=118 x=325   y=0     width=17    height=25    xoffset=-2    yoffset=7     xadvance=12    page=0  
char id=119 x=306   y=0     width=18    height=25    xoffset=-2    yoffset=7     xadvance=12    page=0  
char id=120 x=569   y=47    width=20    height=17    xoffset=-4    yoffset=9     xadvance=12    page=0  
char id=121 x=590   y=47    width=20    height=17    xoffset=-4    yoffset=9     xadvance=12    page=0  
char id=122 x=718   y=46    width=15    height=16    xoffset=-3    yoffset=10    xadvance=10    page=0  
char id=172 x=665   y=46    width=17    height=16    xoffset=-3    yoffset=10    xadvance=10    page=0  
char id=174 x=903   y=23    width=15    height=20    xoffset=-3    yoffset=6     xadvance=10    page=0  
char id=175 x=868   y=23    width=17    height=20    xoffset=-3    yoffset=6     xadvance=10    page=0  
char id=176 x=511   y=47    width=14    height=18    xoffset=-3    yoffset=14    xadvance=9     page=0  
char id=177 x=446   y=48    width=16    height=18    xoffset=-3    yoffset=14    xadvance=9     page=0  
char id=178 x=707   y=0     width=14    height=23    xoffset=-3    yoffset=9     xadvance=9     page=0  
char id=179 x=690   y=0     width=16    height=23    xoffset=-3    yoffset=9     xadvance=9     page=0  
char id=180 x=173   y=27    width=28    height=21    xoffset=-2    yoffset=11    xadvance=24    page=0  
char id=181 x=724   y=23    width=30    height=20    xoffset=-2    yoffset=12    xadvance=24    page=0  
char id=182 x=896   y=44    width=23    height=14    xoffset=-4    yoffset=12    xadvance=17    page=0  
char id=183 x=870   y=44    width=25    height=14    xoffset=-4    yoffset=12    xadvance=17    page=0  
char id=184 x=144   y=0     width=28    height=26    xoffset=-2    yoffset=6     xadvance=24    page=0  
char id=185 x=113   y=0     width=30    height=26    xoffset=-2    yoffset=6     xadvance=24    page=0  
char id=186 x=805   y=23    width=23    height=20    xoffset=-4    yoffset=6     xadvance=17    page=0  
char id=187 x=755   y=23    width=25    height=20    xoffset=-4    yoffset=6     xadvance=17    page=0  
char id=188 x=140   y=27    width=32    height=21    xoffset=-2    yoffset=11    xadvance=28    page=0  
char id=189 x=105   y=28    width=34    height=21    xoffset=-2    yoffset=11    xadvance=28    page=0  
char id=190 x=779   y=44    width=27    height=15    xoffset=-4    yoffset=11    xadvance=21    page=0  
char id=191 x=749   y=44    width=29    height=15    xoffset=-4    yoffset=11    xadvance=21    page=0  
char id=192 x=500   y=0     width=32    height=24    xoffset=-2    yoffset=8     xadvance=28    page=0  
char id=193 x=465   y=0     width=34    height=24    xoffset=-2    yoffset=8     xadvance=28    page=0  
char id=194 x=261   y=49    width=27    height=18    xoffset=-4    yoffset=8     xadvance=21    page=0  
char id=195 x=231   y=49    width=29    height=18    xoffset=-4    yoffset=8     xadvance=21    page=0  
char id=196 x=896   y=0     width=22    height=22    xoffset=-3    yoffset=4     xadvance=17    page=0  
char id=197 x=774   y=0     width=24    height=22    xoffset=-3    yoffset=4     xadvance=17    page=0  
char id=198 x=872   y=0     width=23    height=22    xoffset=-4    yoffset=4     xadvance=17    page=0  
char id=199 x=748   y=0     width=25    height=22    xoffset=-4    yoffset=4     xadvance=17    page=0  
char id=200 x=919   y=0     width=22    height=22    xoffset=-3    yoffset=4     xadvance=17    page=0  
char id=201 x=799   y=0     width=24    height=22    xoffset=-3    yoffset=4     xadvance=17    page=0  
char id=202 x=824   y=0     width=23    height=22    xoffset=-4    yoffset=4     xadvance=17    page=0  
char id=203 x=722   y=0     width=25    height=22    xoffset=-4    yoffset=4     xadvance=17    page=0  
char id=204 x=672   y=0     width=17    height=23    xoffset=-3    yoffset=9     xadvance=10    page=0  
char id=205 x=985   y=0     width=19    height=22    xoffset=-3    yoffset=10    xadvance=12    page=0  
char id=206 x=645   y=47    width=19    height=16    xoffset=-4    yoffset=10    xadvance=12    page=0  
char id=207 x=831   y=44    width=20    height=15    xoffset=-4    yoffset=11    xadvance=12    page=0  
char id=208 x=62    y=0     width=17    height=27    xoffset=-3    yoffset=5     xadvance=10    page=0  
char id=209 x=286   y=0     width=19    height=25    xoffset=-3    yoffset=7     xadvance=12    page=0  
char id=210 x=90    y=51    width=19    height=19    xoffset=-4    yoffset=7     xadvance=12    page=0  
char id=211 x=384   y=48    width=20    height=18    xoffset=-4    yoffset=8     xadvance=12    page=0  
char id=212 x=0     y=52    width=24    height=19    xoffset=-2    yoffset=7     xadvance=21    page=0  
char id=213 x=960   y=23    width=26    height=19    xoffset=-2    yoffset=7     xadvance=21    page=0  
char id=214 x=183   y=49    width=16    height=19    xoffset=-4    yoffset=7     xadvance=10    page=0  
char id=215 x=129   y=50    width=18    height=19    xoffset=-4    yoffset=7     xadvance=10    page=0  
char id=216 x=596   y=0     width=19    height=24    xoffset=-2    yoffset=8     xadvance=16    page=0  
char id=217 x=533   y=0     width=21    height=24    xoffset=-2    yoffset=8     xadvance=16    page=0  
char id=218 x=886   y=23    width=16    height=20    xoffset=-4    yoffset=6     xadvance=10    page=0  
char id=219 x=849   y=23    width=18    height=20    xoffset=-4    yoffset=6     xadvance=10    page=0  
char id=220 x=942   y=0     width=21    height=22    xoffset=-2    yoffset=4     xadvance=17    page=0  
char id=221 x=848   y=0     width=23    height=22    xoffset=-2    yoffset=4     xadvance=17    page=0  
char id=222 x=37    y=29    width=16    height=22    xoffset=-4    yoffset=4     xadvance=10    page=0  
char id=223 x=0     y=29    width=18    height=22    xoffset=-4    yoffset=4     xadvance=10    page=0  
char id=224 x=232   y=0     width=18    height=26    xoffset=-2    yoffset=4     xadvance=14    page=0  
char id=225 x=173   y=0     width=20    height=26    xoffset=-2    yoffset=4     xadvance=14    page=0  
char id=226 x=70    y=28    width=13    height=22    xoffset=-4    yoffset=4     xadvance=7     page=0  
char id=227 x=54    y=29    width=15    height=22    xoffset=-4    yoffset=4     xadvance=7     page=0  
char id=228 x=148   y=49    width=17    height=19    xoffset=-3    yoffset=13    xadvance=12    page=0  
char id=229 x=70    y=51    width=19    height=19    xoffset=-3    yoffset=13    xadvance=12    page=0  
char id=230 x=983   y=43    width=18    height=13    xoffset=-4    yoffset=13    xadvance=12    page=0  
char id=231 x=962   y=43    width=20    height=13    xoffset=-4    yoffset=13    xadvance=12    page=0  
char id=232 x=378   y=26    width=18    height=21    xoffset=-2    yoffset=11    xadvance=14    page=0  
char id=233 x=298   y=26    width=20    height=21    xoffset=-2    yoffset=11    xadvance=14    page=0  
char id=234 x=541   y=47    width=13    height=18    xoffset=-4    yoffset=8     xadvance=7     page=0  
char id=235 x=463   y=48    width=15    height=18    xoffset=-4    yoffset=8     xadvance=7     page=0  
char id=236 x=734   y=44    width=14    height=16    xoffset=-2    yoffset=10    xadvance=10    page=0  
char id=237 x=701   y=46    width=16    height=16    xoffset=-2    yoffset=10    xadvance=10    page=0  
char id=238 x=426   y=48    width=19    height=18    xoffset=-4    yoffset=8     xadvance=14    page=0  
char id=239 x=359   y=26    width=18    height=21    xoffset=-4    yoffset=11    xadvance=10    page=0  
char id=240 x=166   y=49    width=16    height=19    xoffset=-3    yoffset=13    xadvance=10    page=0  
char id=241 x=110   y=50    width=18    height=19    xoffset=-3    yoffset=13    xadvance=10    page=0  
char id=242 x=49    y=52    width=20    height=19    xoffset=-2    yoffset=9     xadvance=16    page=0  
char id=243 x=807   y=44    width=23    height=15    xoffset=-2    yoffset=14    xadvance=17    page=0  
char id=244 x=964   y=0     width=20    height=22    xoffset=-2    yoffset=9     xadvance=16    page=0  
char id=245 x=315   y=48    width=23    height=18    xoffset=-2    yoffset=14    xadvance=17    page=0  
char id=246 x=526   y=47    width=14    height=18    xoffset=-4    yoffset=12    xadvance=7     page=0  
char id=247 x=479   y=47    width=15    height=18    xoffset=-4    yoffset=12    xadvance=7     page=0  
char id=248 x=576   y=0     width=19    height=24    xoffset=-4    yoffset=2     xadvance=12    page=0  
char id=249 x=555   y=0     width=20    height=24    xoffset=-4    yoffset=2     xadvance=12    page=0  
char id=250 x=251   y=0     width=17    height=26    xoffset=-3    yoffset=0     xadvance=12    page=0  
char id=251 x=194   y=0     width=18    height=26    xoffset=-3    yoffset=0     xadvance=12    page=0  
char id=252 x=20    y=0     width=17    height=28    xoffset=-3    yoffset=4     xadvance=12    page=0  
char id=253 x=0     y=0     width=19    height=28    xoffset=-3    yoffset=4     xadvance=5     page=0  
char id=254 x=19    y=29    width=17    height=22    xoffset=-3    yoffset=4     xadvance=12    page=0  
char id=255 x=1005  y=0     width=18    height=22    xoffset=-3    yoffset=4     xadvance=12    page=0  
