info face="Segoe UI" size=36 bold=0 italic=0 charset="unicode" stretchH=100 smooth=1 aa=2 padding=3,3,3,3 spacing=1,1 
common lineHeight=36 base=29 scaleW=1024 scaleH=512 pages=1
char id=32   x=805   y=78    width=8     height=7     xoffset=-3    yoffset=32    xadvance=7     page=0  
char id=33   x=637   y=30    width=10    height=26    xoffset=-1    yoffset=7     xadvance=7     page=0  
char id=34   x=613   y=81    width=13    height=12    xoffset=-1    yoffset=7     xadvance=10    page=0  
char id=35   x=165   y=62    width=22    height=24    xoffset=-3    yoffset=7     xadvance=16    page=0  
char id=36   x=349   y=0     width=18    height=31    xoffset=-2    yoffset=4     xadvance=14    page=0  
char id=37   x=169   y=33    width=27    height=27    xoffset=-3    yoffset=6     xadvance=22    page=0  
char id=38   x=141   y=34    width=27    height=27    xoffset=-2    yoffset=6     xadvance=21    page=0  
char id=39   x=627   y=80    width=9     height=12    xoffset=-1    yoffset=7     xadvance=6     page=0  
char id=40   x=456   y=0     width=13    height=30    xoffset=-2    yoffset=7     xadvance=8     page=0  
char id=41   x=484   y=0     width=13    height=30    xoffset=-3    yoffset=7     xadvance=8     page=0  
char id=42   x=519   y=83    width=16    height=15    xoffset=-2    yoffset=7     xadvance=11    page=0  
char id=43   x=61    y=87    width=20    height=20    xoffset=-1    yoffset=11    xadvance=18    page=0  
char id=44   x=572   y=81    width=11    height=13    xoffset=-3    yoffset=23    xadvance=6     page=0  
char id=45   x=760   y=79    width=14    height=8     xoffset=-2    yoffset=17    xadvance=11    page=0  
char id=46   x=730   y=79    width=10    height=10    xoffset=-2    yoffset=23    xadvance=6     page=0  
char id=47   x=786   y=0     width=18    height=28    xoffset=-3    yoffset=7     xadvance=10    page=0  
char id=48   x=291   y=32    width=20    height=27    xoffset=-3    yoffset=6     xadvance=14    page=0  
char id=49   x=622   y=30    width=14    height=26    xoffset=-1    yoffset=6     xadvance=14    page=0  
char id=50   x=550   y=30    width=19    height=26    xoffset=-2    yoffset=6     xadvance=14    page=0  
char id=51   x=411   y=31    width=18    height=27    xoffset=-2    yoffset=6     xadvance=14    page=0  
char id=52   x=813   y=29    width=20    height=25    xoffset=-3    yoffset=7     xadvance=14    page=0  
char id=53   x=570   y=30    width=17    height=26    xoffset=-1    yoffset=7     xadvance=14    page=0  
char id=54   x=372   y=32    width=19    height=27    xoffset=-2    yoffset=6     xadvance=14    page=0  
char id=55   x=855   y=28    width=19    height=25    xoffset=-2    yoffset=7     xadvance=14    page=0  
char id=56   x=332   y=32    width=19    height=27    xoffset=-2    yoffset=6     xadvance=14    page=0  
char id=57   x=312   y=32    width=19    height=27    xoffset=-2    yoffset=6     xadvance=14    page=0  
char id=58   x=0     y=88    width=10    height=21    xoffset=-2    yoffset=12    xadvance=6     page=0  
char id=59   x=339   y=60    width=11    height=24    xoffset=-3    yoffset=12    xadvance=6     page=0  
char id=60   x=122   y=87    width=19    height=20    xoffset=0     yoffset=11    xadvance=18    page=0  
char id=61   x=536   y=82    width=20    height=14    xoffset=-1    yoffset=14    xadvance=18    page=0  
char id=62   x=82    y=87    width=19    height=20    xoffset=0     yoffset=11    xadvance=18    page=0  
char id=63   x=501   y=31    width=16    height=27    xoffset=-2    yoffset=6     xadvance=12    page=0  
char id=64   x=620   y=0     width=28    height=29    xoffset=-1    yoffset=6     xadvance=26    page=0  
char id=91   x=525   y=0     width=12    height=30    xoffset=-1    yoffset=7     xadvance=8     page=0  
char id=92   x=805   y=0     width=18    height=28    xoffset=-3    yoffset=7     xadvance=10    page=0  
char id=93   x=512   y=0     width=12    height=30    xoffset=-3    yoffset=7     xadvance=8     page=0  
char id=94   x=405   y=84    width=20    height=18    xoffset=-1    yoffset=6     xadvance=18    page=0  
char id=95   x=741   y=79    width=18    height=8     xoffset=-3    yoffset=28    xadvance=11    page=0  
char id=96   x=658   y=79    width=12    height=11    xoffset=-2    yoffset=5     xadvance=7     page=0  
char id=123  x=470   y=0     width=13    height=30    xoffset=-2    yoffset=7     xadvance=8     page=0  
char id=124  x=14    y=0     width=9     height=34    xoffset=-1    yoffset=5     xadvance=6     page=0  
char id=125  x=498   y=0     width=13    height=30    xoffset=-3    yoffset=7     xadvance=8     page=0  
char id=126  x=637   y=80    width=20    height=11    xoffset=-1    yoffset=16    xadvance=18    page=0  
char id=65 x=584   y=81    width=11    height=13    xoffset=-2    yoffset=20    xadvance=7     page=0  
char id=66 x=605   y=30    width=16    height=26    xoffset=-1    yoffset=7     xadvance=13    page=0  
char id=67 x=715   y=79    width=14    height=10    xoffset=-3    yoffset=9     xadvance=8     page=0  
char id=68 x=596   y=81    width=16    height=12    xoffset=-3    yoffset=8     xadvance=9     page=0  
char id=69 x=700   y=79    width=14    height=10    xoffset=-3    yoffset=28    xadvance=7     page=0  
char id=70 x=775   y=78    width=14    height=7     xoffset=-3    yoffset=12    xadvance=7     page=0  
char id=71 x=557   y=81    width=14    height=13    xoffset=-3    yoffset=8     xadvance=8     page=0  
char id=72 x=790   y=78    width=14    height=7     xoffset=-3    yoffset=28    xadvance=8     page=0  
char id=73 x=684   y=79    width=15    height=10    xoffset=-3    yoffset=9     xadvance=8     page=0  
char id=74 x=671   y=79    width=12    height=11    xoffset=-2    yoffset=8     xadvance=8     page=0  
char id=75 x=502   y=83    width=16    height=15    xoffset=-2    yoffset=17    xadvance=11    page=0  
char id=76 x=368   y=0     width=16    height=31    xoffset=-4    yoffset=1     xadvance=7     page=0  
char id=77 x=172   y=0     width=16    height=32    xoffset=-4    yoffset=1     xadvance=7     page=0  
char id=78 x=125   y=0     width=12    height=33    xoffset=-3    yoffset=-1    xadvance=7     page=0  
char id=79 x=0     y=0     width=13    height=34    xoffset=-3    yoffset=-1    xadvance=7     page=0  
char id=80 x=330   y=0     width=18    height=31    xoffset=-3    yoffset=8     xadvance=13    page=0  
char id=81 x=286   y=0     width=21    height=31    xoffset=-3    yoffset=8     xadvance=13    page=0  
char id=82 x=138   y=0     width=12    height=33    xoffset=-3    yoffset=6     xadvance=7     page=0  
char id=83 x=111   y=0     width=13    height=33    xoffset=-3    yoffset=6     xadvance=7     page=0  
char id=84 x=719   y=30    width=24    height=25    xoffset=-2    yoffset=9     xadvance=20    page=0  
char id=85 x=452   y=59    width=28    height=23    xoffset=-2    yoffset=12    xadvance=22    page=0  
char id=86 x=931   y=28    width=15    height=25    xoffset=-4    yoffset=8     xadvance=9     page=0  
char id=87 x=895   y=28    width=17    height=25    xoffset=-4    yoffset=8     xadvance=9     page=0  
char id=88 x=648   y=30    width=9     height=26    xoffset=-1    yoffset=6     xadvance=7     page=0  
char id=89 x=518   y=31    width=11    height=27    xoffset=-1    yoffset=6     xadvance=7     page=0  
char id=90 x=658   y=56    width=27    height=22    xoffset=-1    yoffset=15    xadvance=25    page=0  
char id=97 x=627   y=57    width=30    height=22    xoffset=-1    yoffset=15    xadvance=25    page=0  
char id=98 x=971   y=53    width=15    height=22    xoffset=-4    yoffset=15    xadvance=9     page=0  
char id=99 x=918   y=54    width=17    height=22    xoffset=-4    yoffset=15    xadvance=9     page=0  
char id=100 x=588   y=30    width=16    height=26    xoffset=-1    yoffset=7     xadvance=13    page=0  
char id=101 x=530   y=31    width=19    height=26    xoffset=-2    yoffset=7     xadvance=13    page=0  
char id=102 x=481   y=59    width=27    height=23    xoffset=-1    yoffset=10    xadvance=25    page=0  
char id=103 x=421   y=59    width=30    height=23    xoffset=-1    yoffset=10    xadvance=25    page=0  
char id=104 x=593   y=57    width=17    height=23    xoffset=-4    yoffset=10    xadvance=9     page=0  
char id=105 x=575   y=57    width=17    height=23    xoffset=-4    yoffset=10    xadvance=9     page=0  
char id=106 x=85    y=34    width=27    height=27    xoffset=-1    yoffset=6     xadvance=25    page=0  
char id=107 x=888   y=0     width=30    height=27    xoffset=-1    yoffset=6     xadvance=25    page=0  
char id=108 x=430   y=31    width=17    height=27    xoffset=-4    yoffset=6     xadvance=9     page=0  
char id=109 x=448   y=31    width=17    height=27    xoffset=-4    yoffset=6     xadvance=9     page=0  
char id=110 x=298   y=60    width=20    height=24    xoffset=-2    yoffset=15    xadvance=16    page=0  
char id=111 x=211   y=60    width=21    height=24    xoffset=-2    yoffset=15    xadvance=16    page=0  
char id=112 x=785   y=55    width=23    height=22    xoffset=-4    yoffset=15    xadvance=16    page=0  
char id=113 x=736   y=56    width=24    height=22    xoffset=-4    yoffset=15    xadvance=16    page=0  
char id=114 x=277   y=60    width=20    height=24    xoffset=-2    yoffset=15    xadvance=16    page=0  
char id=115 x=255   y=60    width=21    height=24    xoffset=-2    yoffset=15    xadvance=16    page=0  
char id=116 x=381   y=84    width=23    height=18    xoffset=-4    yoffset=15    xadvance=16    page=0  
char id=117 x=356   y=84    width=24    height=18    xoffset=-4    yoffset=15    xadvance=16    page=0  
char id=118 x=722   y=0     width=20    height=29    xoffset=-2    yoffset=10    xadvance=16    page=0  
char id=119 x=700   y=0     width=21    height=29    xoffset=-2    yoffset=10    xadvance=16    page=0  
char id=120 x=761   y=55    width=23    height=22    xoffset=-4    yoffset=11    xadvance=16    page=0  
char id=121 x=686   y=56    width=24    height=22    xoffset=-4    yoffset=11    xadvance=16    page=0  
char id=122 x=142   y=87    width=17    height=20    xoffset=-3    yoffset=13    xadvance=13    page=0  
char id=172 x=40    y=87    width=20    height=20    xoffset=-3    yoffset=13    xadvance=13    page=0  
char id=174 x=913   y=28    width=17    height=25    xoffset=-3    yoffset=8     xadvance=13    page=0  
char id=175 x=834   y=28    width=20    height=25    xoffset=-3    yoffset=8     xadvance=13    page=0  
char id=176 x=1006  y=53    width=16    height=21    xoffset=-3    yoffset=18    xadvance=11    page=0  
char id=177 x=987   y=53    width=18    height=21    xoffset=-3    yoffset=18    xadvance=11    page=0  
char id=178 x=484   y=31    width=16    height=27    xoffset=-3    yoffset=12    xadvance=11    page=0  
char id=179 x=392   y=31    width=18    height=27    xoffset=-3    yoffset=12    xadvance=11    page=0  
char id=180 x=989   y=28    width=34    height=24    xoffset=-2    yoffset=15    xadvance=31    page=0  
char id=181 x=40    y=62    width=37    height=24    xoffset=-2    yoffset=15    xadvance=31    page=0  
char id=182 x=327   y=85    width=28    height=18    xoffset=-4    yoffset=15    xadvance=22    page=0  
char id=183 x=295   y=85    width=31    height=18    xoffset=-4    yoffset=15    xadvance=22    page=0  
char id=184 x=227   y=0     width=34    height=31    xoffset=-2    yoffset=8     xadvance=31    page=0  
char id=185 x=189   y=0     width=37    height=31    xoffset=-2    yoffset=8     xadvance=31    page=0  
char id=186 x=690   y=30    width=28    height=25    xoffset=-4    yoffset=8     xadvance=22    page=0  
char id=187 x=658   y=30    width=31    height=25    xoffset=-4    yoffset=8     xadvance=22    page=0  
char id=188 x=0     y=63    width=39    height=24    xoffset=-2    yoffset=15    xadvance=36    page=0  
char id=189 x=947   y=28    width=41    height=24    xoffset=-2    yoffset=15    xadvance=36    page=0  
char id=190 x=261   y=85    width=33    height=18    xoffset=-4    yoffset=15    xadvance=27    page=0  
char id=191 x=225   y=85    width=35    height=18    xoffset=-4    yoffset=15    xadvance=27    page=0  
char id=192 x=580   y=0     width=39    height=29    xoffset=-2    yoffset=10    xadvance=36    page=0  
char id=193 x=538   y=0     width=41    height=29    xoffset=-2    yoffset=10    xadvance=36    page=0  
char id=194 x=387   y=60    width=33    height=23    xoffset=-4    yoffset=10    xadvance=27    page=0  
char id=195 x=351   y=60    width=35    height=23    xoffset=-4    yoffset=10    xadvance=27    page=0  
char id=196 x=113   y=34    width=27    height=27    xoffset=-3    yoffset=6     xadvance=22    page=0  
char id=197 x=919   y=0     width=29    height=27    xoffset=-3    yoffset=6     xadvance=22    page=0  
char id=198 x=0     y=35    width=28    height=27    xoffset=-4    yoffset=6     xadvance=22    page=0  
char id=199 x=824   y=0     width=31    height=27    xoffset=-4    yoffset=6     xadvance=22    page=0  
char id=200 x=57    y=34    width=27    height=27    xoffset=-3    yoffset=6     xadvance=22    page=0  
char id=201 x=949   y=0     width=29    height=27    xoffset=-3    yoffset=6     xadvance=22    page=0  
char id=202 x=979   y=0     width=28    height=27    xoffset=-4    yoffset=6     xadvance=22    page=0  
char id=203 x=856   y=0     width=31    height=27    xoffset=-4    yoffset=6     xadvance=22    page=0  
char id=204 x=270   y=32    width=20    height=27    xoffset=-2    yoffset=12    xadvance=13    page=0  
char id=205 x=767   y=29    width=22    height=25    xoffset=-2    yoffset=14    xadvance=16    page=0  
char id=206 x=202   y=86    width=22    height=19    xoffset=-4    yoffset=14    xadvance=16    page=0  
char id=207 x=177   y=87    width=24    height=19    xoffset=-4    yoffset=14    xadvance=16    page=0  
char id=208 x=151   y=0     width=20    height=32    xoffset=-2    yoffset=7     xadvance=13    page=0  
char id=209 x=433   y=0     width=22    height=30    xoffset=-2    yoffset=9     xadvance=16    page=0  
char id=210 x=534   y=58    width=22    height=23    xoffset=-4    yoffset=10    xadvance=16    page=0  
char id=211 x=509   y=59    width=24    height=23    xoffset=-4    yoffset=10    xadvance=16    page=0  
char id=212 x=111   y=62    width=29    height=24    xoffset=-1    yoffset=9     xadvance=27    page=0  
char id=213 x=78    y=62    width=32    height=24    xoffset=-1    yoffset=9     xadvance=27    page=0  
char id=214 x=319   y=60    width=19    height=24    xoffset=-4    yoffset=9     xadvance=13    page=0  
char id=215 x=188   y=61    width=22    height=24    xoffset=-4    yoffset=9     xadvance=13    page=0  
char id=216 x=676   y=0     width=23    height=29    xoffset=-2    yoffset=10    xadvance=20    page=0  
char id=217 x=649   y=0     width=26    height=29    xoffset=-2    yoffset=10    xadvance=20    page=0  
char id=218 x=875   y=28    width=19    height=25    xoffset=-4    yoffset=8     xadvance=13    page=0  
char id=219 x=790   y=29    width=22    height=25    xoffset=-4    yoffset=8     xadvance=13    page=0  
char id=220 x=197   y=32    width=25    height=27    xoffset=-1    yoffset=6     xadvance=22    page=0  
char id=221 x=29    y=34    width=27    height=27    xoffset=-1    yoffset=6     xadvance=22    page=0  
char id=222 x=766   y=0     width=19    height=28    xoffset=-4    yoffset=5     xadvance=13    page=0  
char id=223 x=743   y=0     width=22    height=28    xoffset=-4    yoffset=5     xadvance=13    page=0  
char id=224 x=308   y=0     width=21    height=31    xoffset=-2    yoffset=6     xadvance=18    page=0  
char id=225 x=262   y=0     width=23    height=31    xoffset=-2    yoffset=6     xadvance=18    page=0  
char id=226 x=1008  y=0     width=15    height=27    xoffset=-4    yoffset=6     xadvance=9     page=0  
char id=227 x=466   y=31    width=17    height=27    xoffset=-4    yoffset=6     xadvance=9     page=0  
char id=228 x=878   y=54    width=20    height=22    xoffset=-3    yoffset=17    xadvance=16    page=0  
char id=229 x=833   y=55    width=22    height=22    xoffset=-3    yoffset=17    xadvance=16    page=0  
char id=230 x=480   y=83    width=21    height=16    xoffset=-4    yoffset=17    xadvance=16    page=0  
char id=231 x=455   y=83    width=24    height=16    xoffset=-4    yoffset=17    xadvance=16    page=0  
char id=232 x=233   y=60    width=21    height=24    xoffset=-2    yoffset=15    xadvance=18    page=0  
char id=233 x=141   y=62    width=23    height=24    xoffset=-2    yoffset=15    xadvance=18    page=0  
char id=234 x=611   y=57    width=15    height=23    xoffset=-4    yoffset=10    xadvance=9     page=0  
char id=235 x=557   y=57    width=17    height=23    xoffset=-4    yoffset=10    xadvance=9     page=0  
char id=236 x=160   y=87    width=16    height=20    xoffset=-1    yoffset=13    xadvance=13    page=0  
char id=237 x=102   y=87    width=19    height=20    xoffset=-2    yoffset=13    xadvance=13    page=0  
char id=238 x=809   y=55    width=23    height=22    xoffset=-4    yoffset=11    xadvance=18    page=0  
char id=239 x=744   y=29    width=22    height=25    xoffset=-4    yoffset=14    xadvance=13    page=0  
char id=240 x=899   y=54    width=18    height=22    xoffset=-3    yoffset=17    xadvance=13    page=0  
char id=241 x=856   y=54    width=21    height=22    xoffset=-3    yoffset=17    xadvance=13    page=0  
char id=242 x=711   y=56    width=24    height=22    xoffset=-2    yoffset=12    xadvance=20    page=0  
char id=243 x=426   y=83    width=28    height=16    xoffset=-2    yoffset=19    xadvance=22    page=0  
char id=244 x=223   y=32    width=24    height=27    xoffset=-2    yoffset=12    xadvance=20    page=0  
char id=245 x=11    y=88    width=28    height=20    xoffset=-2    yoffset=19    xadvance=22    page=0  
char id=246 x=954   y=53    width=16    height=22    xoffset=-4    yoffset=15    xadvance=9     page=0  
char id=247 x=936   y=54    width=17    height=22    xoffset=-4    yoffset=15    xadvance=9     page=0  
char id=248 x=410   y=0     width=22    height=30    xoffset=-4    yoffset=3     xadvance=16    page=0  
char id=249 x=385   y=0     width=24    height=30    xoffset=-4    yoffset=3     xadvance=16    page=0  
char id=250 x=70    y=0     width=20    height=33    xoffset=-3    yoffset=0     xadvance=16    page=0  
char id=251 x=47    y=0     width=22    height=33    xoffset=-3    yoffset=0     xadvance=16    page=0  
char id=252 x=91    y=0     width=19    height=33    xoffset=-2    yoffset=6     xadvance=16    page=0  
char id=253 x=24    y=0     width=22    height=33    xoffset=-2    yoffset=6     xadvance=7     page=0  
char id=254 x=352   y=32    width=19    height=27    xoffset=-2    yoffset=6     xadvance=16    page=0  
char id=255 x=248   y=32    width=21    height=27    xoffset=-2    yoffset=6     xadvance=16    page=0  
