info face="Segoe UI" size=18 bold=1 italic=0 charset="unicode" stretchH=100 smooth=1 aa=4 padding=0,0,0,0 spacing=2,2 
common lineHeight=18 base=15 scaleW=1024 scaleH=512 pages=1
char id=32   x=726   y=13    width=1     height=1     xoffset=0     yoffset=17    xadvance=3     page=0  
char id=33   x=65    y=15    width=3     height=10    xoffset=0     yoffset=5     xadvance=4     page=0  
char id=34   x=670   y=13    width=5     height=3     xoffset=1     yoffset=5     xadvance=6     page=0  
char id=35   x=250   y=14    width=8     height=9     xoffset=0     yoffset=5     xadvance=8     page=0  
char id=36   x=149   y=0     width=7     height=13    xoffset=0     yoffset=3     xadvance=7     page=0  
char id=37   x=442   y=0     width=11    height=11    xoffset=0     yoffset=4     xadvance=11    page=0  
char id=38   x=386   y=0     width=12    height=11    xoffset=0     yoffset=4     xadvance=11    page=0  
char id=39   x=1020  y=0     width=2     height=3     xoffset=1     yoffset=5     xadvance=4     page=0  
char id=40   x=323   y=0     width=5     height=12    xoffset=0     yoffset=5     xadvance=5     page=0  
char id=41   x=316   y=0     width=5     height=12    xoffset=0     yoffset=5     xadvance=5     page=0  
char id=42   x=616   y=13    width=6     height=5     xoffset=0     yoffset=5     xadvance=6     page=0  
char id=43   x=570   y=13    width=7     height=7     xoffset=1     yoffset=7     xadvance=9     page=0  
char id=44   x=648   y=13    width=3     height=4     xoffset=0     yoffset=13    xadvance=3     page=0  
char id=45   x=714   y=13    width=4     height=2     xoffset=0     yoffset=10    xadvance=5     page=0  
char id=46   x=689   y=13    width=3     height=3     xoffset=0     yoffset=12    xadvance=3     page=0  
char id=47   x=662   y=0     width=7     height=11    xoffset=0     yoffset=5     xadvance=6     page=0  
char id=48   x=598   y=0     width=8     height=11    xoffset=0     yoffset=4     xadvance=7     page=0  
char id=49   x=727   y=0     width=5     height=11    xoffset=1     yoffset=4     xadvance=7     page=0  
char id=50   x=626   y=0     width=7     height=11    xoffset=0     yoffset=4     xadvance=7     page=0  
char id=51   x=617   y=0     width=7     height=11    xoffset=0     yoffset=4     xadvance=7     page=0  
char id=52   x=965   y=0     width=8     height=10    xoffset=0     yoffset=5     xadvance=7     page=0  
char id=53   x=975   y=0     width=7     height=10    xoffset=0     yoffset=5     xadvance=7     page=0  
char id=54   x=653   y=0     width=7     height=11    xoffset=0     yoffset=4     xadvance=7     page=0  
char id=55   x=993   y=0     width=7     height=10    xoffset=0     yoffset=5     xadvance=7     page=0  
char id=56   x=588   y=0     width=8     height=11    xoffset=0     yoffset=4     xadvance=7     page=0  
char id=57   x=644   y=0     width=7     height=11    xoffset=0     yoffset=4     xadvance=7     page=0  
char id=58   x=421   y=13    width=3     height=8     xoffset=0     yoffset=7     xadvance=3     page=0  
char id=59   x=70    y=15    width=3     height=10    xoffset=0     yoffset=7     xadvance=3     page=0  
char id=60   x=561   y=13    width=7     height=7     xoffset=1     yoffset=7     xadvance=9     page=0  
char id=61   x=607   y=13    width=7     height=5     xoffset=1     yoffset=8     xadvance=9     page=0  
char id=62   x=552   y=13    width=7     height=7     xoffset=1     yoffset=7     xadvance=9     page=0  
char id=63   x=688   y=0     width=6     height=11    xoffset=0     yoffset=4     xadvance=6     page=0  
char id=64   x=239   y=0     width=12    height=12    xoffset=0     yoffset=4     xadvance=13    page=0  
char id=91   x=344   y=0     width=4     height=12    xoffset=1     yoffset=5     xadvance=5     page=0  
char id=92   x=608   y=0     width=7     height=11    xoffset=0     yoffset=5     xadvance=6     page=0  
char id=93   x=350   y=0     width=4     height=12    xoffset=0     yoffset=5     xadvance=5     page=0  
char id=94   x=543   y=13    width=7     height=7     xoffset=1     yoffset=4     xadvance=9     page=0  
char id=95   x=694   y=13    width=6     height=2     xoffset=0     yoffset=15    xadvance=5     page=0  
char id=96   x=683   y=13    width=4     height=3     xoffset=0     yoffset=4     xadvance=4     page=0  
char id=123  x=337   y=0     width=5     height=12    xoffset=0     yoffset=5     xadvance=5     page=0  
char id=124  x=50    y=0     width=2     height=14    xoffset=1     yoffset=4     xadvance=4     page=0  
char id=125  x=330   y=0     width=5     height=12    xoffset=0     yoffset=5     xadvance=5     page=0  
char id=126  x=653   y=13    width=8     height=3     xoffset=1     yoffset=9     xadvance=9     page=0  
char id=65 x=643   y=13    width=3     height=4     xoffset=0     yoffset=11    xadvance=3     page=0  
char id=66 x=58    y=15    width=5     height=10    xoffset=0     yoffset=5     xadvance=6     page=0  
char id=67 x=677   y=13    width=4     height=3     xoffset=0     yoffset=6     xadvance=4     page=0  
char id=68 x=624   y=13    width=5     height=4     xoffset=0     yoffset=5     xadvance=4     page=0  
char id=69 x=702   y=13    width=4     height=2     xoffset=0     yoffset=15    xadvance=4     page=0  
char id=70 x=708   y=13    width=4     height=2     xoffset=0     yoffset=7     xadvance=4     page=0  
char id=71 x=631   y=13    width=4     height=4     xoffset=0     yoffset=5     xadvance=4     page=0  
char id=72 x=720   y=13    width=4     height=1     xoffset=0     yoffset=15    xadvance=4     page=0  
char id=73 x=663   y=13    width=5     height=3     xoffset=0     yoffset=6     xadvance=4     page=0  
char id=74 x=637   y=13    width=4     height=4     xoffset=0     yoffset=5     xadvance=4     page=0  
char id=75 x=600   y=13    width=5     height=6     xoffset=0     yoffset=9     xadvance=5     page=0  
char id=76 x=192   y=0     width=6     height=13    xoffset=-1    yoffset=2     xadvance=3     page=0  
char id=77 x=184   y=0     width=6     height=13    xoffset=-1    yoffset=2     xadvance=3     page=0  
char id=78 x=40    y=0     width=3     height=14    xoffset=0     yoffset=1     xadvance=3     page=0  
char id=79 x=34    y=0     width=4     height=14    xoffset=0     yoffset=1     xadvance=3     page=0  
char id=80 x=176   y=0     width=6     height=13    xoffset=0     yoffset=5     xadvance=6     page=0  
char id=81 x=119   y=0     width=8     height=13    xoffset=0     yoffset=5     xadvance=6     page=0  
char id=82 x=45    y=0     width=3     height=14    xoffset=0     yoffset=4     xadvance=3     page=0  
char id=83 x=28    y=0     width=4     height=14    xoffset=0     yoffset=4     xadvance=3     page=0  
char id=84 x=545   y=0     width=10    height=11    xoffset=0     yoffset=5     xadvance=10    page=0  
char id=85 x=881   y=0     width=11    height=10    xoffset=0     yoffset=7     xadvance=11    page=0  
char id=86 x=51    y=16    width=5     height=10    xoffset=0     yoffset=5     xadvance=4     page=0  
char id=87 x=43    y=16    width=6     height=10    xoffset=0     yoffset=5     xadvance=4     page=0  
char id=88 x=746   y=0     width=2     height=11    xoffset=0     yoffset=4     xadvance=3     page=0  
char id=89 x=741   y=0     width=3     height=11    xoffset=0     yoffset=4     xadvance=3     page=0  
char id=90 x=136   y=15    width=11    height=9     xoffset=0     yoffset=8     xadvance=12    page=0  
char id=97 x=108   y=15    width=12    height=9     xoffset=0     yoffset=8     xadvance=12    page=0  
char id=98 x=352   y=14    width=5     height=9     xoffset=0     yoffset=8     xadvance=4     page=0  
char id=99 x=290   y=14    width=6     height=9     xoffset=0     yoffset=8     xadvance=4     page=0  
char id=100 x=35    y=16    width=6     height=10    xoffset=0     yoffset=5     xadvance=6     page=0  
char id=101 x=984   y=0     width=7     height=10    xoffset=0     yoffset=5     xadvance=6     page=0  
char id=102 x=149   y=15    width=11    height=9     xoffset=0     yoffset=6     xadvance=12    page=0  
char id=103 x=122   y=15    width=12    height=9     xoffset=0     yoffset=6     xadvance=12    page=0  
char id=104 x=314   y=14    width=6     height=9     xoffset=0     yoffset=6     xadvance=4     page=0  
char id=105 x=306   y=14    width=6     height=9     xoffset=0     yoffset=6     xadvance=4     page=0  
char id=106 x=520   y=0     width=11    height=11    xoffset=0     yoffset=4     xadvance=12    page=0  
char id=107 x=428   y=0     width=12    height=11    xoffset=0     yoffset=4     xadvance=12    page=0  
char id=108 x=704   y=0     width=6     height=11    xoffset=0     yoffset=4     xadvance=4     page=0  
char id=109 x=712   y=0     width=6     height=11    xoffset=0     yoffset=4     xadvance=4     page=0  
char id=110 x=0     y=16    width=7     height=10    xoffset=0     yoffset=8     xadvance=8     page=0  
char id=111 x=935   y=0     width=8     height=10    xoffset=0     yoffset=8     xadvance=8     page=0  
char id=112 x=206   y=14    width=9     height=9     xoffset=0     yoffset=8     xadvance=8     page=0  
char id=113 x=195   y=15    width=9     height=9     xoffset=0     yoffset=8     xadvance=8     page=0  
char id=114 x=1011  y=0     width=7     height=10    xoffset=0     yoffset=8     xadvance=8     page=0  
char id=115 x=905   y=0     width=8     height=10    xoffset=0     yoffset=8     xadvance=8     page=0  
char id=116 x=522   y=13    width=9     height=7     xoffset=0     yoffset=8     xadvance=8     page=0  
char id=117 x=511   y=13    width=9     height=7     xoffset=0     yoffset=8     xadvance=8     page=0  
char id=118 x=167   y=0     width=7     height=13    xoffset=0     yoffset=5     xadvance=8     page=0  
char id=119 x=129   y=0     width=8     height=13    xoffset=0     yoffset=5     xadvance=8     page=0  
char id=120 x=217   y=14    width=9     height=9     xoffset=0     yoffset=6     xadvance=8     page=0  
char id=121 x=228   y=14    width=9     height=9     xoffset=0     yoffset=6     xadvance=8     page=0  
char id=122 x=390   y=13    width=6     height=8     xoffset=0     yoffset=7     xadvance=6     page=0  
char id=172 x=372   y=13    width=7     height=8     xoffset=0     yoffset=7     xadvance=6     page=0  
char id=174 x=27    y=16    width=6     height=10    xoffset=0     yoffset=5     xadvance=6     page=0  
char id=175 x=1002  y=0     width=7     height=10    xoffset=0     yoffset=5     xadvance=6     page=0  
char id=176 x=414   y=13    width=5     height=8     xoffset=0     yoffset=10    xadvance=5     page=0  
char id=177 x=398   y=13    width=6     height=8     xoffset=0     yoffset=10    xadvance=5     page=0  
char id=178 x=734   y=0     width=5     height=11    xoffset=0     yoffset=7     xadvance=5     page=0  
char id=179 x=680   y=0     width=6     height=11    xoffset=0     yoffset=7     xadvance=5     page=0  
char id=180 x=823   y=0     width=14    height=10    xoffset=0     yoffset=8     xadvance=15    page=0  
char id=181 x=789   y=0     width=16    height=10    xoffset=0     yoffset=8     xadvance=15    page=0  
char id=182 x=487   y=13    width=11    height=7     xoffset=0     yoffset=8     xadvance=11    page=0  
char id=183 x=459   y=13    width=13    height=7     xoffset=0     yoffset=8     xadvance=11    page=0  
char id=184 x=72    y=0     width=14    height=13    xoffset=0     yoffset=5     xadvance=15    page=0  
char id=185 x=54    y=0     width=16    height=13    xoffset=0     yoffset=5     xadvance=15    page=0  
char id=186 x=868   y=0     width=11    height=10    xoffset=0     yoffset=5     xadvance=11    page=0  
char id=187 x=839   y=0     width=13    height=10    xoffset=0     yoffset=5     xadvance=11    page=0  
char id=188 x=770   y=0     width=17    height=10    xoffset=0     yoffset=8     xadvance=18    page=0  
char id=189 x=750   y=0     width=18    height=10    xoffset=0     yoffset=8     xadvance=18    page=0  
char id=190 x=443   y=13    width=14    height=7     xoffset=0     yoffset=8     xadvance=13    page=0  
char id=191 x=426   y=13    width=15    height=7     xoffset=0     yoffset=8     xadvance=13    page=0  
char id=192 x=220   y=0     width=17    height=12    xoffset=0     yoffset=6     xadvance=18    page=0  
char id=193 x=200   y=0     width=18    height=12    xoffset=0     yoffset=6     xadvance=18    page=0  
char id=194 x=92    y=15    width=14    height=9     xoffset=0     yoffset=6     xadvance=13    page=0  
char id=195 x=75    y=15    width=15    height=9     xoffset=0     yoffset=6     xadvance=13    page=0  
char id=196 x=507   y=0     width=11    height=11    xoffset=0     yoffset=4     xadvance=11    page=0  
char id=197 x=414   y=0     width=12    height=11    xoffset=0     yoffset=4     xadvance=11    page=0  
char id=198 x=494   y=0     width=11    height=11    xoffset=0     yoffset=4     xadvance=11    page=0  
char id=199 x=356   y=0     width=13    height=11    xoffset=0     yoffset=4     xadvance=11    page=0  
char id=200 x=468   y=0     width=11    height=11    xoffset=0     yoffset=4     xadvance=11    page=0  
char id=201 x=400   y=0     width=12    height=11    xoffset=0     yoffset=4     xadvance=11    page=0  
char id=202 x=481   y=0     width=11    height=11    xoffset=0     yoffset=4     xadvance=11    page=0  
char id=203 x=371   y=0     width=13    height=11    xoffset=0     yoffset=4     xadvance=11    page=0  
char id=204 x=635   y=0     width=7     height=11    xoffset=0     yoffset=7     xadvance=6     page=0  
char id=205 x=578   y=0     width=8     height=11    xoffset=0     yoffset=7     xadvance=8     page=0  
char id=206 x=533   y=13    width=8     height=7     xoffset=0     yoffset=8     xadvance=8     page=0  
char id=207 x=500   y=13    width=9     height=7     xoffset=0     yoffset=8     xadvance=8     page=0  
char id=208 x=10    y=0     width=7     height=14    xoffset=0     yoffset=4     xadvance=6     page=0  
char id=209 x=99    y=0     width=8     height=13    xoffset=0     yoffset=5     xadvance=8     page=0  
char id=210 x=280   y=14    width=8     height=9     xoffset=0     yoffset=6     xadvance=8     page=0  
char id=211 x=162   y=15    width=9     height=9     xoffset=0     yoffset=6     xadvance=8     page=0  
char id=212 x=854   y=0     width=12    height=10    xoffset=0     yoffset=5     xadvance=13    page=0  
char id=213 x=807   y=0     width=14    height=10    xoffset=0     yoffset=5     xadvance=13    page=0  
char id=214 x=18    y=16    width=7     height=10    xoffset=0     yoffset=5     xadvance=6     page=0  
char id=215 x=955   y=0     width=8     height=10    xoffset=0     yoffset=5     xadvance=6     page=0  
char id=216 x=276   y=0     width=9     height=12    xoffset=0     yoffset=6     xadvance=10    page=0  
char id=217 x=253   y=0     width=10    height=12    xoffset=0     yoffset=6     xadvance=10    page=0  
char id=218 x=9     y=16    width=7     height=10    xoffset=0     yoffset=5     xadvance=6     page=0  
char id=219 x=945   y=0     width=8     height=10    xoffset=0     yoffset=5     xadvance=6     page=0  
char id=220 x=533   y=0     width=10    height=11    xoffset=0     yoffset=4     xadvance=11    page=0  
char id=221 x=455   y=0     width=11    height=11    xoffset=0     yoffset=4     xadvance=11    page=0  
char id=222 x=307   y=0     width=7     height=12    xoffset=0     yoffset=3     xadvance=6     page=0  
char id=223 x=297   y=0     width=8     height=12    xoffset=0     yoffset=3     xadvance=6     page=0  
char id=224 x=109   y=0     width=8     height=13    xoffset=0     yoffset=4     xadvance=9     page=0  
char id=225 x=88    y=0     width=9     height=13    xoffset=0     yoffset=4     xadvance=9     page=0  
char id=226 x=720   y=0     width=5     height=11    xoffset=0     yoffset=4     xadvance=4     page=0  
char id=227 x=696   y=0     width=6     height=11    xoffset=0     yoffset=4     xadvance=4     page=0  
char id=228 x=260   y=14    width=8     height=9     xoffset=0     yoffset=9     xadvance=8     page=0  
char id=229 x=173   y=15    width=9     height=9     xoffset=0     yoffset=9     xadvance=8     page=0  
char id=230 x=590   y=13    width=8     height=6     xoffset=0     yoffset=9     xadvance=8     page=0  
char id=231 x=579   y=13    width=9     height=6     xoffset=0     yoffset=9     xadvance=8     page=0  
char id=232 x=925   y=0     width=8     height=10    xoffset=0     yoffset=8     xadvance=9     page=0  
char id=233 x=894   y=0     width=9     height=10    xoffset=0     yoffset=8     xadvance=9     page=0  
char id=234 x=338   y=14    width=5     height=9     xoffset=0     yoffset=6     xadvance=4     page=0  
char id=235 x=330   y=14    width=6     height=9     xoffset=0     yoffset=6     xadvance=4     page=0  
char id=236 x=406   y=13    width=6     height=8     xoffset=0     yoffset=7     xadvance=6     page=0  
char id=237 x=381   y=13    width=7     height=8     xoffset=0     yoffset=7     xadvance=6     page=0  
char id=238 x=184   y=15    width=9     height=9     xoffset=0     yoffset=6     xadvance=9     page=0  
char id=239 x=915   y=0     width=8     height=10    xoffset=0     yoffset=8     xadvance=6     page=0  
char id=240 x=322   y=14    width=6     height=9     xoffset=0     yoffset=9     xadvance=6     page=0  
char id=241 x=270   y=14    width=8     height=9     xoffset=0     yoffset=9     xadvance=6     page=0  
char id=242 x=239   y=14    width=9     height=9     xoffset=0     yoffset=7     xadvance=10    page=0  
char id=243 x=474   y=13    width=11    height=7     xoffset=0     yoffset=10    xadvance=11    page=0  
char id=244 x=557   y=0     width=9     height=11    xoffset=0     yoffset=7     xadvance=10    page=0  
char id=245 x=359   y=13    width=11    height=8     xoffset=0     yoffset=10    xadvance=11    page=0  
char id=246 x=345   y=14    width=5     height=9     xoffset=0     yoffset=8     xadvance=4     page=0  
char id=247 x=298   y=14    width=6     height=9     xoffset=0     yoffset=8     xadvance=4     page=0  
char id=248 x=287   y=0     width=8     height=12    xoffset=-1    yoffset=3     xadvance=8     page=0  
char id=249 x=265   y=0     width=9     height=12    xoffset=-1    yoffset=3     xadvance=8     page=0  
char id=250 x=158   y=0     width=7     height=13    xoffset=0     yoffset=2     xadvance=8     page=0  
char id=251 x=139   y=0     width=8     height=13    xoffset=0     yoffset=2     xadvance=8     page=0  
char id=252 x=19    y=0     width=7     height=14    xoffset=0     yoffset=4     xadvance=8     page=0  
char id=253 x=0     y=0     width=8     height=14    xoffset=0     yoffset=4     xadvance=8     page=0  
char id=254 x=671   y=0     width=7     height=11    xoffset=0     yoffset=4     xadvance=8     page=0  
char id=255 x=568   y=0     width=8     height=11    xoffset=0     yoffset=4     xadvance=8     page=0  
